\relax 
\providecommand\hyper@newdestlabel[2]{}
\providecommand\HyperFirstAtBeginDocument{\AtBeginDocument}
\HyperFirstAtBeginDocument{\ifx\hyper@anchor\@undefined
\global\let\oldcontentsline\contentsline
\gdef\contentsline#1#2#3#4{\oldcontentsline{#1}{#2}{#3}}
\global\let\oldnewlabel\newlabel
\gdef\newlabel#1#2{\newlabelxx{#1}#2}
\gdef\newlabelxx#1#2#3#4#5#6{\oldnewlabel{#1}{{#2}{#3}}}
\AtEndDocument{\ifx\hyper@anchor\@undefined
\let\contentsline\oldcontentsline
\let\newlabel\oldnewlabel
\fi}
\fi}
\global\let\hyper@last\relax 
\gdef\HyperFirstAtBeginDocument#1{#1}
\providecommand\HyField@AuxAddToFields[1]{}
\providecommand\HyField@AuxAddToCoFields[2]{}
\catcode`"\active
\select@language{american}
\@writefile{toc}{\select@language{american}}
\@writefile{lof}{\select@language{american}}
\@writefile{lot}{\select@language{american}}
\select@language{american}
\@writefile{toc}{\select@language{american}}
\@writefile{lof}{\select@language{american}}
\@writefile{lot}{\select@language{american}}
\select@language{brazil}
\@writefile{toc}{\select@language{brazil}}
\@writefile{lof}{\select@language{brazil}}
\@writefile{lot}{\select@language{brazil}}
\citation{kurose}
\citation{kurose}
\citation{ntt}
\citation{ntt}
\citation{ftth}
\citation{ftth}
\citation{evolution}
\citation{evolution}
\citation{wdmsim}
\citation{wdmsim}
\@writefile{toc}{\contentsline {chapter}{\numberline {1}Introdu\IeC {\c c}\IeC {\~a}o}{1}{chapter.1}}
\@writefile{lof}{\addvspace {10\p@ }}
\@writefile{lot}{\addvspace {10\p@ }}
\newlabel{intro}{{1}{1}{Introdução}{chapter.1}{}}
\@writefile{brf}{\backcite{kurose}{{1}{1}{chapter.1}}}
\@writefile{brf}{\backcite{ntt}{{1}{1}{chapter.1}}}
\@writefile{brf}{\backcite{ftth}{{1}{1}{chapter.1}}}
\@writefile{brf}{\backcite{evolution}{{1}{1}{chapter.1}}}
\@writefile{brf}{\backcite{wdmsim}{{1}{1}{chapter.1}}}
\@writefile{toc}{\contentsline {section}{\numberline {1.1}Motiva\IeC {\c c}\IeC {\~a}o}{2}{section.1.1}}
\@writefile{toc}{\contentsline {section}{\numberline {1.2}Objetivos}{2}{section.1.2}}
\@writefile{toc}{\contentsline {subsection}{\numberline {1.2.1}Objetivo Geral}{2}{subsection.1.2.1}}
\@writefile{toc}{\contentsline {subsection}{\numberline {1.2.2}Objetivos Espec\IeC {\'\i }ficos}{2}{subsection.1.2.2}}
\@writefile{toc}{\contentsline {section}{\numberline {1.3}Organiza\IeC {\c c}\IeC {\~a}o da Monografia}{2}{section.1.3}}
\citation{alexander}
\citation{alexander}
\citation{roukas}
\citation{roukas}
\@writefile{toc}{\contentsline {chapter}{\numberline {2}Fundamentos em Redes \IeC {\'O}pticas WDM}{4}{chapter.2}}
\@writefile{lof}{\addvspace {10\p@ }}
\@writefile{lot}{\addvspace {10\p@ }}
\newlabel{tecnologia}{{2}{4}{Fundamentos em Redes Ópticas WDM}{chapter.2}{}}
\@writefile{toc}{\contentsline {section}{\numberline {2.1}Contextualiza\IeC {\c c}\IeC {\~a}o das Redes WDM}{4}{section.2.1}}
\@writefile{brf}{\backcite{alexander}{{4}{2.1}{section.2.1}}}
\citation{murthy}
\citation{murthy}
\@writefile{lof}{\contentsline {figure}{\numberline {2.1}{\ignorespaces Optical Cross-Connect}}{5}{figure.2.1}}
\@writefile{brf}{\backcite{roukas}{{5}{2.1}{figure.2.1}}}
\newlabel{fig:oxc}{{2.1}{5}{Optical Cross-Connect}{figure.2.1}{}}
\@writefile{toc}{\contentsline {section}{\numberline {2.2}Divis\IeC {\~a}o e Multiplexa\IeC {\c c}\IeC {\~a}o de Comprimento de Onda}{5}{section.2.2}}
\@writefile{lof}{\contentsline {figure}{\numberline {2.2}{\ignorespaces Divis\IeC {\~a}o e Multiplexa\IeC {\c c}\IeC {\~a}o de Comprimento de Onda}}{5}{figure.2.2}}
\newlabel{wdm}{{2.2}{5}{Divisão e Multiplexação de Comprimento de Onda}{figure.2.2}{}}
\citation{zhu}
\citation{zhu}
\citation{roukas}
\citation{roukas}
\@writefile{brf}{\backcite{murthy}{{6}{2.2}{figure.2.2}}}
\@writefile{toc}{\contentsline {section}{\numberline {2.3}Caminho \IeC {\'O}ptico}{6}{section.2.3}}
\@writefile{brf}{\backcite{zhu}{{6}{2.3}{section.2.3}}}
\@writefile{toc}{\contentsline {section}{\numberline {2.4}Agrega\IeC {\c c}\IeC {\~a}o de Tr\IeC {\'a}fego}{6}{section.2.4}}
\newlabel{agregacaoTrafego}{{2.4}{6}{Agregação de Tráfego}{section.2.4}{}}
\@writefile{toc}{\contentsline {section}{\numberline {2.5}Convers\IeC {\~a}o de Comprimento de Onda}{6}{section.2.5}}
\citation{skiena}
\citation{skiena}
\citation{bezerra}
\citation{bezerra}
\citation{bezerra}
\citation{bezerra}
\@writefile{lof}{\contentsline {figure}{\numberline {2.3}{\ignorespaces Conversores de Comprimento de onda}}{7}{figure.2.3}}
\@writefile{brf}{\backcite{roukas}{{7}{2.3}{figure.2.3}}}
\newlabel{fig:conversor}{{2.3}{7}{Conversores de Comprimento de onda}{figure.2.3}{}}
\@writefile{toc}{\contentsline {section}{\numberline {2.6}Roteamento e Aloca\IeC {\c c}\IeC {\~a}o de Comprimentos de Onda}{7}{section.2.6}}
\newlabel{roteamentoAlocacao}{{2.6}{7}{Roteamento e Alocação de Comprimentos de Onda}{section.2.6}{}}
\@writefile{brf}{\backcite{skiena}{{7}{2.6}{section.2.6}}}
\@writefile{brf}{\backcite{bezerra}{{7}{2.6}{section.2.6}}}
\@writefile{brf}{\backcite{bezerra}{{7}{2.6}{section.2.6}}}
\@writefile{toc}{\contentsline {section}{\numberline {2.7}Tr\IeC {\'a}fego em Redes \IeC {\'O}pticas}{7}{section.2.7}}
\citation{andre}
\citation{andre}
\citation{andre,tese}
\citation{tese}
\citation{andre}
\@writefile{toc}{\contentsline {chapter}{\numberline {3}WDMSim}{8}{chapter.3}}
\@writefile{lof}{\addvspace {10\p@ }}
\@writefile{lot}{\addvspace {10\p@ }}
\newlabel{wdmsim}{{3}{8}{WDMSim}{chapter.3}{}}
\@writefile{brf}{\backcite{andre}{{8}{3}{chapter.3}}}
\@writefile{toc}{\contentsline {section}{\numberline {3.1}Algoritmo RWA}{8}{section.3.1}}
\newlabel{algoritmoRWA}{{3.1}{8}{Algoritmo RWA}{section.3.1}{}}
\@writefile{lof}{\contentsline {figure}{\numberline {3.1}{\ignorespaces M\IeC {\'e}todos definidos pela interface RWA}}{9}{figure.3.1}}
\newlabel{interfaceRWA}{{3.1}{9}{Métodos definidos pela interface RWA}{figure.3.1}{}}
\@writefile{brf}{\backcite{tese}{{9}{3.1}{figure.3.1}}}
\@writefile{brf}{\backcite{andre}{{9}{3.1}{figure.3.1}}}
\@writefile{toc}{\contentsline {section}{\numberline {3.2}Execu\IeC {\c c}\IeC {\~a}o}{9}{section.3.2}}
\newlabel{execucao}{{3.2}{9}{Execução}{section.3.2}{}}
\@writefile{lof}{\contentsline {figure}{\numberline {3.2}{\ignorespaces Diagrama do fluxo de dados do simulador WDMSim}}{10}{figure.3.2}}
\newlabel{fluxo}{{3.2}{10}{Diagrama do fluxo de dados do simulador WDMSim}{figure.3.2}{}}
\@writefile{lof}{\contentsline {figure}{\numberline {3.3}{\ignorespaces Exemplo de arquivo XML de Entrada}}{10}{figure.3.3}}
\newlabel{xml}{{3.3}{10}{Exemplo de arquivo XML de Entrada}{figure.3.3}{}}
\@writefile{lot}{\contentsline {table}{\numberline {3.1}{\ignorespaces Elementos presentes em um arquivo XML de configura\IeC {\c c}\IeC {\~a}o}}{11}{table.3.1}}
\newlabel{elementos}{{3.1}{11}{Elementos presentes em um arquivo XML de configuração}{table.3.1}{}}
\@writefile{toc}{\contentsline {chapter}{\numberline {4}Especifica\IeC {\c c}\IeC {\~a}o}{12}{chapter.4}}
\@writefile{lof}{\addvspace {10\p@ }}
\@writefile{lot}{\addvspace {10\p@ }}
\newlabel{especificacao}{{4}{12}{Especificação}{chapter.4}{}}
\@writefile{toc}{\contentsline {section}{\numberline {4.1}Interface Gr\IeC {\'a}fica}{12}{section.4.1}}
\newlabel{cap2:intro}{{4.1}{12}{Interface Gráfica}{section.4.1}{}}
\@writefile{toc}{\contentsline {section}{\numberline {4.2}Servidor de Simula\IeC {\c c}\IeC {\~a}o}{12}{section.4.2}}
\@writefile{toc}{\contentsline {section}{\numberline {4.3}Requisitos}{13}{section.4.3}}
\newlabel{cap2:funcionalidades}{{4.3}{13}{Requisitos}{section.4.3}{}}
\@writefile{toc}{\contentsline {subsection}{\numberline {4.3.1}Nova Simula\IeC {\c c}\IeC {\~a}o}{13}{subsection.4.3.1}}
\@writefile{toc}{\contentsline {subsection}{\numberline {4.3.2}Abrir Simula\IeC {\c c}\IeC {\~a}o}{13}{subsection.4.3.2}}
\@writefile{toc}{\contentsline {subsection}{\numberline {4.3.3}Salvar Simula\IeC {\c c}\IeC {\~a}o}{13}{subsection.4.3.3}}
\@writefile{toc}{\contentsline {subsection}{\numberline {4.3.4}Novo Roteador}{14}{subsection.4.3.4}}
\@writefile{toc}{\contentsline {subsection}{\numberline {4.3.5}Novo Enlace}{14}{subsection.4.3.5}}
\@writefile{toc}{\contentsline {subsection}{\numberline {4.3.6}Remover Roteador}{14}{subsection.4.3.6}}
\@writefile{toc}{\contentsline {subsection}{\numberline {4.3.7}Editar Roteador}{14}{subsection.4.3.7}}
\@writefile{lot}{\contentsline {table}{\numberline {4.1}{\ignorespaces Campos de Configura\IeC {\c c}\IeC {\~a}o de N\IeC {\'o}s}}{15}{table.4.1}}
\newlabel{camposConfig}{{4.1}{15}{Campos de Configuração de Nós}{table.4.1}{}}
\@writefile{toc}{\contentsline {subsection}{\numberline {4.3.8}Editar Enlaces}{15}{subsection.4.3.8}}
\@writefile{lot}{\contentsline {table}{\numberline {4.2}{\ignorespaces Campos de Configura\IeC {\c c}\IeC {\~a}o de Enlace}}{15}{table.4.2}}
\newlabel{camposEnlace}{{4.2}{15}{Campos de Configuração de Enlace}{table.4.2}{}}
\@writefile{toc}{\contentsline {subsection}{\numberline {4.3.9}Manter Chamadas}{15}{subsection.4.3.9}}
\@writefile{lot}{\contentsline {table}{\numberline {4.3}{\ignorespaces Campos de Configura\IeC {\c c}\IeC {\~a}o de Chamada}}{16}{table.4.3}}
\newlabel{camposChamadas}{{4.3}{16}{Campos de Configuração de Chamada}{table.4.3}{}}
\@writefile{toc}{\contentsline {subsection}{\numberline {4.3.10}Executar Simula\IeC {\c c}\IeC {\~a}o}{16}{subsection.4.3.10}}
\newlabel{cap2:simulacao}{{4.3.10}{16}{Executar Simulação}{subsection.4.3.10}{}}
\@writefile{lot}{\contentsline {table}{\numberline {4.4}{\ignorespaces Campos presentes ao ser requisitar uma simula\IeC {\c c}\IeC {\~a}o}}{16}{table.4.4}}
\newlabel{camposExecucao}{{4.4}{16}{Campos presentes ao ser requisitar uma simulação}{table.4.4}{}}
\@writefile{toc}{\contentsline {subsection}{\numberline {4.3.11}Gerar Estat\IeC {\'\i }sticas}{16}{subsection.4.3.11}}
\@writefile{toc}{\contentsline {subsection}{\numberline {4.3.12}Adicionar Classe RWA}{16}{subsection.4.3.12}}
\@writefile{toc}{\contentsline {subsection}{\numberline {4.3.13}Exportar Resultados}{17}{subsection.4.3.13}}
\@writefile{toc}{\contentsline {subsection}{\numberline {4.3.14}Recuperar Trace}{17}{subsection.4.3.14}}
\@writefile{lot}{\contentsline {table}{\numberline {4.5}{\ignorespaces Eventos registrados no arquivo de trace}}{17}{table.4.5}}
\newlabel{eventosTrace}{{4.5}{17}{Eventos registrados no arquivo de trace}{table.4.5}{}}
\@writefile{toc}{\contentsline {section}{\numberline {4.4}Requisitos Desej\IeC {\'a}veis}{17}{section.4.4}}
\@writefile{toc}{\contentsline {subsection}{\numberline {4.4.1}Criar Topologia Comuns}{17}{subsection.4.4.1}}
\@writefile{toc}{\contentsline {subsection}{\numberline {4.4.2}Copiar e Colar Roteadores}{18}{subsection.4.4.2}}
\@writefile{toc}{\contentsline {subsection}{\numberline {4.4.3}Deletar Simula\IeC {\c c}\IeC {\~a}o}{18}{subsection.4.4.3}}
\@writefile{toc}{\contentsline {subsection}{\numberline {4.4.4}Salvar e Recuperar Simula\IeC {\c c}\IeC {\~a}o}{18}{subsection.4.4.4}}
\@writefile{toc}{\contentsline {subsection}{\numberline {4.4.5}Atalhos}{18}{subsection.4.4.5}}
\newlabel{sec:atalhos}{{4.4.5}{18}{Atalhos}{subsection.4.4.5}{}}
\@writefile{lot}{\contentsline {table}{\numberline {4.6}{\ignorespaces Atalhos do Sistema}}{18}{table.4.6}}
\newlabel{tabelaAtalhos}{{4.6}{18}{Atalhos do Sistema}{table.4.6}{}}
\@writefile{toc}{\contentsline {subsection}{\numberline {4.4.6}Barra de Rolagem}{18}{subsection.4.4.6}}
\newlabel{barra}{{4.4.6}{18}{Barra de Rolagem}{subsection.4.4.6}{}}
\newlabel{fig:novo1}{{4.1}{19}{Barra de Rolagem}{figure.4.1}{}}
\newlabel{fig:novo2}{{4.1}{19}{Barra de Rolagem}{figure.4.1}{}}
\@writefile{lof}{\contentsline {figure}{\numberline {4.1}{\ignorespaces Barra de Rolagem}}{19}{figure.4.1}}
\newlabel{barraRolagem}{{4.1}{19}{Barra de Rolagem}{figure.4.1}{}}
\@writefile{toc}{\contentsline {subsection}{\numberline {4.4.7}Adi\IeC {\c c}\IeC {\~a}o de Eventos}{19}{subsection.4.4.7}}
\newlabel{eventos}{{4.4.7}{19}{Adição de Eventos}{subsection.4.4.7}{}}
\@writefile{toc}{\contentsline {chapter}{\numberline {5}Projeto e Arquitetura}{20}{chapter.5}}
\@writefile{lof}{\addvspace {10\p@ }}
\@writefile{lot}{\addvspace {10\p@ }}
\newlabel{arquitetura}{{5}{20}{Projeto e Arquitetura}{chapter.5}{}}
\@writefile{toc}{\contentsline {section}{\numberline {5.1}Pacotes da Aplica\IeC {\c c}\IeC {\~a}o}{20}{section.5.1}}
\@writefile{lof}{\contentsline {figure}{\numberline {5.1}{\ignorespaces Diagrama de Pacotes}}{21}{figure.5.1}}
\newlabel{fig:pacotes}{{5.1}{21}{Diagrama de Pacotes}{figure.5.1}{}}
\@writefile{lof}{\contentsline {figure}{\numberline {5.2}{\ignorespaces Diagrama de BD}}{21}{figure.5.2}}
\newlabel{fig:bd}{{5.2}{21}{Diagrama de BD}{figure.5.2}{}}
\@writefile{toc}{\contentsline {section}{\numberline {5.2}Padr\IeC {\~o}es de Projeto}{21}{section.5.2}}
\@writefile{lof}{\contentsline {figure}{\numberline {5.3}{\ignorespaces Classes de Cria\IeC {\c c}\IeC {\~a}o da Tela}}{22}{figure.5.3}}
\newlabel{fig:singleton}{{5.3}{22}{Classes de Criação da Tela}{figure.5.3}{}}
\@writefile{lof}{\contentsline {figure}{\numberline {5.4}{\ignorespaces Diagrama de Classes Functions}}{22}{figure.5.4}}
\newlabel{fig:command}{{5.4}{22}{Diagrama de Classes Functions}{figure.5.4}{}}
\@writefile{toc}{\contentsline {section}{\numberline {5.3}Implementa\IeC {\c c}\IeC {\~a}o}{22}{section.5.3}}
\newlabel{implementacao}{{5.3}{22}{Implementação}{section.5.3}{}}
\citation{CHAP}
\citation{CHAP}
\citation{restgwt}
\citation{restgwt}
\@writefile{brf}{\backcite{CHAP}{{23}{5.3}{section.5.3}}}
\@writefile{brf}{\backcite{restgwt}{{23}{5.3}{section.5.3}}}
\@writefile{toc}{\contentsline {chapter}{\numberline {6}Valida\IeC {\c c}\IeC {\~a}o}{24}{chapter.6}}
\@writefile{lof}{\addvspace {10\p@ }}
\@writefile{lot}{\addvspace {10\p@ }}
\newlabel{validacao}{{6}{24}{Validação}{chapter.6}{}}
\@writefile{toc}{\contentsline {section}{\numberline {6.1}Fatores de Qualidade}{24}{section.6.1}}
\@writefile{toc}{\contentsline {subsection}{\numberline {6.1.1}Manutenibilidade}{24}{subsection.6.1.1}}
\@writefile{lot}{\contentsline {table}{\numberline {6.1}{\ignorespaces Mapeamento de Funcionalidade e Classes}}{24}{table.6.1}}
\@writefile{toc}{\contentsline {subsection}{\numberline {6.1.2}Interoperabilidade}{24}{subsection.6.1.2}}
\citation{h2}
\citation{h2}
\@writefile{lot}{\contentsline {table}{\numberline {6.2}{\ignorespaces Testes de navegadores}}{25}{table.6.2}}
\@writefile{toc}{\contentsline {subsection}{\numberline {6.1.3}Reusabilidade}{25}{subsection.6.1.3}}
\@writefile{toc}{\contentsline {subsection}{\numberline {6.1.4}Portabilidade}{25}{subsection.6.1.4}}
\@writefile{brf}{\backcite{h2}{{25}{6.1.4}{subsection.6.1.4}}}
\bibstyle{plain}
\@writefile{toc}{\contentsline {chapter}{\numberline {7}Conclus\IeC {\~a}o}{26}{chapter.7}}
\@writefile{lof}{\addvspace {10\p@ }}
\@writefile{lot}{\addvspace {10\p@ }}
\newlabel{conclusao}{{7}{26}{Conclusão}{chapter.7}{}}
\bibdata{bibliografia}
\bibcite{alexander}{{1}{}{{}}{{}}}
\bibcite{murthy}{{2}{}{{}}{{}}}
\bibcite{ftth}{{3}{}{{}}{{}}}
\bibcite{wdmsim}{{4}{}{{}}{{}}}
\bibcite{tese}{{5}{}{{}}{{}}}
\bibcite{roukas}{{6}{}{{}}{{}}}
\bibcite{andre}{{7}{}{{}}{{}}}
\bibcite{restgwt}{{8}{}{{}}{{}}}
\bibcite{h2}{{9}{}{{}}{{}}}
\bibcite{kurose}{{10}{}{{}}{{}}}
\bibcite{CHAP}{{11}{}{{}}{{}}}
\bibcite{ntt}{{12}{}{{}}{{}}}
\bibcite{bezerra}{{13}{}{{}}{{}}}
\bibcite{skiena}{{14}{}{{}}{{}}}
\bibcite{evolution}{{15}{}{{}}{{}}}
\@writefile{toc}{\contentsline {chapter}{Refer\^encias}{27}{section*.8}}
\bibcite{zhu}{{16}{}{{}}{{}}}
\newlabel{TotPaginas}{{39}{28}{}{page.28}{}}
\providecommand\NAT@force@numbers{}\NAT@force@numbers
\@writefile{toc}{\contentsline {chapter}{\numberline {A}Manual de Usu\IeC {\'a}rio}{29}{appendix.A}}
\@writefile{lof}{\addvspace {10\p@ }}
\@writefile{lot}{\addvspace {10\p@ }}
\@writefile{lof}{\contentsline {figure}{\numberline {A.1}{\ignorespaces Tela Principal}}{29}{figure.A.1}}
\newlabel{fig:tela1}{{A.1}{29}{Tela Principal}{figure.A.1}{}}
\@writefile{lof}{\contentsline {figure}{\numberline {A.2}{\ignorespaces Cria\IeC {\c c}\IeC {\~a}o de Roteador}}{30}{figure.A.2}}
\@writefile{lof}{\contentsline {figure}{\numberline {A.3}{\ignorespaces Adicionar um novo link entre roteadores}}{30}{figure.A.3}}
\@writefile{lof}{\contentsline {figure}{\numberline {A.4}{\ignorespaces Remover um N\IeC {\'o} j\IeC {\'a} existente}}{30}{figure.A.4}}
\@writefile{lof}{\contentsline {figure}{\numberline {A.5}{\ignorespaces Editar N\IeC {\'o} j\IeC {\'a} criado}}{30}{figure.A.5}}
\@writefile{lof}{\contentsline {figure}{\numberline {A.6}{\ignorespaces Importar e Exportar em XML}}{31}{figure.A.6}}
\@writefile{lof}{\contentsline {figure}{\numberline {A.7}{\ignorespaces Rede Simples Modelada}}{31}{figure.A.7}}
\newlabel{fig:simple}{{A.7}{31}{Rede Simples Modelada}{figure.A.7}{}}
\@writefile{lof}{\contentsline {figure}{\numberline {A.8}{\ignorespaces Arquivo XML de Entrada/Sa\IeC {\'\i }da respectivo \IeC {\`a} figura \ref  {fig:simple}}}{31}{figure.A.8}}
