\begin{thebibliography}{10}

\bibitem{alexander}
S.B. Alexander, S.W. Chaddick, R.C. Litz, and C.D. Smith.
\newblock Remodulating channel selectors for wdm optical communication systems.
\newblock \url{http://www.google.com/patents/US8306424}, 2012.
\newblock US Patent 8,306,424.

\bibitem{murthy}
Gurusamy~Mohan C.~Siva~Murthy.
\newblock Wdm optical networks: Concepts, design and algorithms, 2001.

\bibitem{ftth}
FTTH Council.
\newblock North american ftth status—march 31, 2011.
\newblock \url{www.ftthcouncil.org}, 2011.

\bibitem{wdmsim}
A.~C. Drummond.
\newblock {WDMSim: WDM Optical Network Simulator}.
\newblock \url{http://www.lrc.ic.unicamp.br/wdmsim/}, 2013.

\bibitem{tese}
André~Costa Drummond.
\newblock {\em Agregação de Tráfego em Redes Ópticas com Multiplexação
  por Comprimentos de Onda}.
\newblock PhD thesis, UNICAMP, 2011.

\bibitem{roukas}
George N.~Rouskas e~Harry G.~Perros.
\newblock A tutorial on optical networks.
\newblock Department of Computer Science, 2002.
\newblock Raleigh, NC, USA.

\bibitem{andre}
André Costa~Drummond e~Nelson Luís Saldanha~da Fonseca.
\newblock Agregação de tráfego em redes Ópticas com multiplexação por
  comprimentos de onda, 2013.

\bibitem{restgwt}
Fusesource.
\newblock Making restful services accessible to gwt applications.
\newblock \url{http://restygwt.fusesource.org/index.html}, 2014.
\newblock RestGWT.

\bibitem{h2}
DBMS H2.
\newblock H2 database engine.
\newblock \url{http://www.h2database.com/html/main.html}, 2014.

\bibitem{kurose}
Keith W.~Ross James F.~Kurose.
\newblock {\em Computer Networking: A top Down Approach}.
\newblock Addison-Wesley, 6 edition, 2013.

\bibitem{CHAP}
Almende~Organizing Networks.
\newblock Network visualization api.
\newblock \url{http://almende.github.io/chap-links-library/network.html}, 2014.
\newblock Chap Library.

\bibitem{ntt}
NTT.
\newblock World record one petabit per second fiber transmission over 50-km.
\newblock \url{http://www.ntt.co.jp/news2012/1209e/120920a.html}, 2012.

\bibitem{bezerra}
Afonso J. F. Cardoso e Carlos R. L.~Francês Paulo H. G.~Bezerra.
\newblock Performance evaluation of algorithms for wavelength assignment in
  optical wdm networks, 2010.
\newblock International Journal of Computer Science and Network Security.

\bibitem{skiena}
Steven~S. Skiena.
\newblock {\em The Algorithm Design Manual}.
\newblock Springer, 2 edition, 2008.

\bibitem{evolution}
W3C and Mozilla~Developer Network.
\newblock Evolução da web.
\newblock \url{http://www.evolutionoftheweb.com/##/growth/day}, 2012.

\bibitem{zhu}
Keyao Zhu.
\newblock Traffic grooming in an optical wdm mesh network, 2002.

\end{thebibliography}
